{
"metadata" : {},
"scale" : 0.5,
"materials": [	{
	"DbgColor" : 15658734,
	"DbgIndex" : 0,
	"DbgName" : "default",
	"vertexColors" : false
	}],
"vertices": [-3,3,-3,
			3,3,-3,
			-3,-3,-3,
			3,-3,-3,
			-3,3,3,
			3,3,3,
			-3,-3,3,
			3,-3,3],
"faces": [	0,0,1,2,
			0,3,2,1,
			0,4,6,7,
			0,5,4,7,
			0,1,5,3,
			0,5,7,3,
			0,0,2,4,
			0,4,2,6,
			0,1,4,5,
			0,1,0,4,
			0,6,2,7,
			0,2,3,7],
"morphTargets": [],
"normals": [],
"colors": [],
"uvs": [[0, 1]]
}
